[
  {
    "id": 1,
    "name": "Burger King",
    "image": "/commerce-images/burger-king.png"
  },
  {
    "id": 2,
    "name": "Farmacity",
    "image": "/commerce-images/farmacity.png"
  },
  {
    "id": 3,
    "name": "Mc Donalds",
    "image": "/commerce-images/mc-donalds.png"
  },
  {
    "id": 4,
    "name": "Wollen",
    "image": "/commerce-images/wollen.png"
  }
]
